Pinout for Core407v:

SPI1:  	42 Mbits/s	FOR NRF24L01 ALTERNATE FUNCTIONS (5)
	PA4, PA15	SPI1_NSS
	(PA5), PB3	SPI1_SCK
	PA6, PB4	SPI1_MISO
	PA7, PB5	SPI1_MOSI

prescaler:
0	42	000
1	21	001
2	10,5	010
4	5,25	011
8	2,625	111
16
32

NRF24L01 PINOUT:

NRF21L01	ARM
(1)GND		GND
(2)VCC		3.3V
(3)CE		PD8	RF ACTIVATED PIN
(4)CSN		PD7	SPI3 / CSN
(5)SCK		PD10	SPI3 / SCK
(6)MOSI		PC12	SPI3 / MOSI
(7)MISO		PC11	SPI3 / MISO
(8)IRQ		N/A	INT PIN GOES LOW WHEN ACTIVE

SPI2:	21 Mbits/s
	PB10	SPI2_SCK
	PB12, PB9	SPI2_NSS
	PB13	SPI2_SCK
	PB14, PC2	SPI2_MISO
	PB15, PC3	SPI2_MOSI

SPI3:	21 Mbit/s
	PC10	SPI3_SCK
	PC11	SPI3_MISO
	PC12, PB5	SPI3_MOSI
	PA15    SPI3_NSS (JTDI)

USART1:
	PA8	USART1 / CK
	PA9, PB6	USART1 / TX
	PA10, PB7	USART1 / RX
	PA11	USART1 / CTS
	PA12	USART1 / RTS

USART2:
	PA0, PD3	USART2 / CTS
	PA1, PD4	USART2 / RTS
	PA2, PD5	USART2 / TX
	PA3, PD6	USART2 / RX
	PA4, PD7	USART2 / CK
OSC:
	PC14
	PC15
	PH0
	PH1

OTHER:
	PA0	WAKEUP
	PB2	BOOT1
	PA13	JTMS / SWDIO
	PA14	JTCK / SWCLK
	PA15	JTDI
	PB3	JTDO / TRACESWO
	PB4	NJTRST
	PB15	RTC_REFIN
	PC9	MCO2
	
